Initial matrix A:
   72.6278   70.6562   98.4591   77.9761   48.0705
   70.6562   13.3193   37.4044   68.0313   45.4750
   98.4591   37.4044   85.0990   44.1166   93.5988
   77.9761   68.0313   44.1166   97.1043   14.9323
   48.0705   45.4750   93.5988   14.9323   19.2750


#####################################
#          Find lowest first        #
#####################################
Find 1 lowest eigenvalues
-----------------------------------
First 1 eigenvalues:
-66.9426

First 1 rows in A
72.6278 -0.0000 0.0000 0.0000 0.0000

Number of rotations required: 120


Find 2 lowest eigenvalues
-----------------------------------
First 2 eigenvalues:
-66.9426
-17.5356

First 2 rows in A
72.6278 -0.0000 0.0000 0.0000 0.0000
70.6562 13.3193 0.0000 -0.0000 0.0000

Number of rotations required: 2553


Find 3 lowest eigenvalues
-----------------------------------
First 3 eigenvalues:
-66.9426
-17.5356
-16.5504

First 3 rows in A
72.6278 -0.0000 0.0000 0.0000 0.0000
70.6562 13.3193 0.0000 -0.0000 0.0000
98.4591 37.4044 85.0990 0.0000 0.0000

Number of rotations required: 2575


Find 4 lowest eigenvalues
-----------------------------------
First 4 eigenvalues:
-66.9426
-17.5356
-16.5504
79.7947

First 4 rows in A
72.6278 -0.0000 0.0000 0.0000 0.0000
70.6562 13.3193 0.0000 -0.0000 0.0000
98.4591 37.4044 85.0990 0.0000 0.0000
77.9761 68.0313 44.1166 97.1043 0.0000

Number of rotations required: 2577


Find 5 lowest eigenvalues
-----------------------------------
First 5 eigenvalues:
-66.9426
-17.5356
-16.5504
79.7947
308.6593

First 5 rows in A
72.6278 -0.0000 0.0000 0.0000 0.0000
70.6562 13.3193 0.0000 -0.0000 0.0000
98.4591 37.4044 85.0990 0.0000 0.0000
77.9761 68.0313 44.1166 97.1043 0.0000
48.0705 45.4750 93.5988 14.9323 19.2750

Number of rotations required: 2577


-----------------------------------
V^T*A*V:
-66.9426 0.0000 -0.0000 -0.0000 -0.0000
0.0000 -17.5356 0.0000 -0.0000 0.0000
-0.0000 0.0000 -16.5504 -0.0000 0.0000
-0.0000 -0.0000 -0.0000 79.7947 0.0000
-0.0000 0.0000 0.0000 0.0000 308.6593


#####################################
#          Find highest first       #
#####################################
Find 1 lowest eigenvalues
-----------------------------------
First 1 eigenvalues:
308.6593

First 1 rows in A
72.6278 0.0000 0.0000 -0.0000 -0.0000

Number of rotations required: 36


Find 2 lowest eigenvalues
-----------------------------------
First 2 eigenvalues:
308.6593
79.7947

First 2 rows in A
72.6278 0.0000 0.0000 -0.0000 -0.0000
70.6562 13.3193 -0.0000 -0.0000 0.0000

Number of rotations required: 57


Find 3 lowest eigenvalues
-----------------------------------
First 3 eigenvalues:
308.6593
79.7947
-16.5504

First 3 rows in A
72.6278 0.0000 0.0000 -0.0000 -0.0000
70.6562 13.3193 -0.0000 -0.0000 0.0000
98.4591 37.4044 85.0990 0.0000 0.0000

Number of rotations required: 443


Find 4 lowest eigenvalues
-----------------------------------
First 4 eigenvalues:
308.6593
79.7947
-16.5504
-17.5356

First 4 rows in A
72.6278 0.0000 0.0000 -0.0000 -0.0000
70.6562 13.3193 -0.0000 -0.0000 0.0000
98.4591 37.4044 85.0990 0.0000 0.0000
77.9761 68.0313 44.1166 97.1043 0.0000

Number of rotations required: 445


Find 5 lowest eigenvalues
-----------------------------------
First 5 eigenvalues:
308.6593
79.7947
-16.5504
-17.5356
-66.9426

First 5 rows in A
72.6278 0.0000 0.0000 -0.0000 -0.0000
70.6562 13.3193 -0.0000 -0.0000 0.0000
98.4591 37.4044 85.0990 0.0000 0.0000
77.9761 68.0313 44.1166 97.1043 0.0000
48.0705 45.4750 93.5988 14.9323 19.2750

Number of rotations required: 445


-----------------------------------
V^T*A*V:
308.6593 0.0000 0.0000 -0.0000 0.0000
0.0000 79.7947 -0.0000 0.0000 0.0000
0.0000 -0.0000 -16.5504 -0.0000 0.0000
-0.0000 0.0000 -0.0000 -17.5356 0.0000
0.0000 0.0000 0.0000 0.0000 -66.9426
